[
    {
        "title": "$:/plugins/felixhayashi/tiddlymap/graph/views/Default/filter/nodes",
        "text": "",
        "type": "text/vnd.tiddlywiki",
        "filter": "   [field:tmap.id[7ece7b3b-3aac-45a7-9caf-1103618592b4]] [field:tmap.id[e9ad499a-136c-42a6-a9b2-7c009e6fff8c]] [field:tmap.id[af1eab36-0593-434d-a3f1-f5af0d16d82a]]"
    }
]